[
  {
    "EnableLogging": true,
    "ListenAddress": "$IP$",
    "ListenPort": "$PORT$",
    "SingleInstance": false,
    "LoadPluginsExplicitly": false,
    "PluginContainers": [],
    "VirtualHosts": [
      {
        "ServerName": "*",
        "DocumentRoot": "www"
      }
    ],
    "PluginSettings": {}
  }
]